Division,WeightClassKg,Place,Name,Team,BodyweightKg,Best3SquatKg,Best3BenchKg,Best3DeadliftKg,TotalKg,Equipment,Event,Sex,BirthDate
Boys,51.71,1,Chris Minor,Ralls,51.44,127.01,77.11,147.42,351.53,Unlimited,SBD,M,
Boys,51.71,2,Joey Penner,Seminole,51.71,88.45,52.16,83.91,224.53,Unlimited,SBD,M,
Boys,55.79,1,Daniel Longoria,Plains,54.43,92.99,63.5,124.74,281.23,Unlimited,SBD,M,
Boys,55.79,2,Ayden Mora,Idalou,52.16,97.52,72.57,102.06,272.16,Unlimited,SBD,M,
Boys,55.79,3,Ethan Oujezdsky,Idalou,51.98,92.99,70.31,97.52,260.82,Unlimited,SBD,M,
Boys,59.87,1,Fabian Armendariz,Slaton,58.51,158.76,108.86,174.63,442.25,Unlimited,SBD,M,
Boys,59.87,2,Alejandro Gonzales,Seminole,57.15,115.67,72.57,136.08,324.32,Unlimited,SBD,M,
Boys,59.87,3,Aiden Nelms,Plains,59.87,113.4,72.57,113.4,299.37,Unlimited,SBD,M,
Boys,67.13,1,Noah Vasquez,Idalou,62.82,197.31,113.4,174.63,485.34,Unlimited,SBD,M,
Boys,67.13,2,Jhoan Menjivar,Plains,63.96,151.95,97.52,179.17,428.64,Unlimited,SBD,M,
Boys,67.13,3,Randy Clark,Ralls,66.41,142.88,86.18,149.69,378.75,Unlimited,SBD,M,
Boys,67.13,4,Josiah Carrizales,Denver City,65.82,138.35,88.45,131.54,358.34,Unlimited,SBD,M,
Boys,67.13,5,Elias Menjivar,Plains,61.69,124.74,83.91,145.15,353.8,Unlimited,SBD,M,
Boys,67.13,6,Jesus Caro,Plains,64.86,92.99,74.84,120.2,288.03,Unlimited,SBD,M,
Boys,67.13,7,Brady Robles,Plains,62.14,88.45,70.31,108.86,267.62,Unlimited,SBD,M,
Boys,74.84,1,Collin Simmons,Slaton,73.03,199.58,142.88,192.78,535.24,Unlimited,SBD,M,
Boys,74.84,2,Daniel Flores,Ralls,74.53,204.12,99.79,201.85,505.76,Unlimited,SBD,M,
Boys,74.84,3,Jeremy Floyd,Slaton,70.76,167.83,111.13,183.7,462.66,Unlimited,SBD,M,
Boys,74.84,4,Isias Gallegos,Slaton,74.39,149.69,108.86,195.04,453.59,Unlimited,SBD,M,
Boys,74.84,5,Austin Simmons,Slaton,69.13,147.42,115.67,138.35,401.43,Unlimited,SBD,M,
Boys,74.84,6,Jesus Montez,Idalou,68.49,138.35,99.79,140.61,378.75,Unlimited,SBD,M,
Boys,74.84,7,Luis Maruquez,Denver City,72.67,145.15,88.45,138.35,371.95,Unlimited,SBD,M,
Boys,74.84,8,Gauge Galvan,Denver City,73.21,127.01,81.65,127.01,335.66,Unlimited,SBD,M,
Boys,74.84,9,Francisco Olvera,Seminole,73.48,122.47,70.31,133.81,326.59,Unlimited,SBD,M,
Boys,74.84,10,Gael Lozano,Plains,74.84,111.13,68.04,136.08,315.25,Unlimited,SBD,M,
Boys,74.84,DQ,Ulises Larrea,Denver City,70.85,172.37,,,,Unlimited,SBD,M,
Boys,82.1,1,Mason Martinez,Slaton,81.65,210.92,142.88,215.46,569.26,Unlimited,SBD,M,
Boys,82.1,2,Antonio Hernandez,Idalou,79.61,210.92,138.35,188.24,537.51,Unlimited,SBD,M,
Boys,82.1,3,Dominik Ovalle,Ralls,78.11,190.51,92.99,183.7,467.2,Unlimited,SBD,M,
Boys,82.1,4,Nelson Avila,Plains,76.66,149.69,106.59,183.7,439.98,Unlimited,SBD,M,
Boys,82.1,5,Ethan Peters,Denver City,80.01,140.61,79.38,163.29,383.29,Unlimited,SBD,M,
Boys,82.1,6,Jackson Garcia,Idalou,76.38,111.13,83.91,111.13,306.17,Unlimited,SBD,M,
Boys,82.1,DQ,Christian Wood,Ralls,82.1,,,,,Unlimited,SBD,M,
Boys,89.81,1,Ricardo Bazaldua,Slaton,87.91,219.99,120.2,208.65,548.85,Unlimited,SBD,M,
Boys,89.81,2,Jose Velasco,Denver City,89.68,188.24,136.08,181.44,505.76,Unlimited,SBD,M,
Boys,89.81,3,Issac Zavala,Ralls,84.1,158.76,113.4,170.1,442.25,Unlimited,SBD,M,
Boys,89.81,4,Halen Hadley,Seminole,88.9,151.95,92.99,179.17,424.11,Unlimited,SBD,M,
Boys,89.81,5,Austin Vanriper,Seminole,89.36,165.56,102.06,149.69,417.3,Unlimited,SBD,M,
Boys,89.81,6,Austin Vizcayno,Seminole,87.09,165.56,79.38,147.42,392.36,Unlimited,SBD,M,
Boys,89.81,7,Hiram Gaytan,Seminole,86.18,138.35,83.91,149.69,371.95,Unlimited,SBD,M,
Boys,99.79,1,Angel Orona,Denver City,98.84,226.8,136.08,197.31,560.19,Unlimited,SBD,M,
Boys,99.79,2,Apollo Rodriguez,Idalou,99.61,204.12,138.35,188.24,530.7,Unlimited,SBD,M,
Boys,99.79,3,Camden Huse,Denver City,94.17,172.37,115.67,183.7,471.74,Unlimited,SBD,M,
Boys,99.79,4,Gio Gutierrez,Idalou,99.06,165.56,120.2,174.63,460.4,Unlimited,SBD,M,
Boys,99.79,5,Ryan Sinclair,Seminole,98.88,174.63,97.52,183.7,455.86,Unlimited,SBD,M,
Boys,99.79,6,Martin Leon,Denver City,90.99,145.15,122.47,172.37,439.98,Unlimited,SBD,M,
Boys,99.79,7,Brayan Dominguez,Denver City,94.03,136.08,86.18,136.08,358.34,Unlimited,SBD,M,
Boys,99.79,8,Jorey Gutierrez,Seminole,99.34,129.27,68.04,129.27,326.59,Unlimited,SBD,M,
Boys,99.79,9,Caden Hice,Seminole,97.98,83.91,83.91,136.08,303.91,Unlimited,SBD,M,
Boys,99.79,DQ,Israel Contreras,Plains,97.98,,,,,Unlimited,SBD,M,
Boys,109.77,1,Gaston Bustos,Idalou,101.47,201.85,136.08,197.31,535.24,Unlimited,SBD,M,
Boys,109.77,2,Nathan Gomez,Idalou,107,197.31,127.01,210.92,535.24,Unlimited,SBD,M,
Boys,109.77,3,Brayden Dominguez,Idalou,109.63,190.51,127.01,185.97,503.49,Unlimited,SBD,M,
Boys,109.77,4,Isaiah Aguirre,Seminole,109.77,183.7,92.99,183.7,460.4,Unlimited,SBD,M,
Boys,109.77,5,Owen Call,Seminole,109.77,151.95,92.99,183.7,428.64,Unlimited,SBD,M,
Boys,109.77,6,Brenden Garcia,Seminole,107.5,142.88,88.45,158.76,390.09,Unlimited,SBD,M,
Boys,109.77,DQ,Kade Pope,Denver City,109.41,265.35,154.22,,,Unlimited,SBD,M,
Boys,124.74,1,Carson Cox,Seminole,117.03,199.58,117.93,183.7,501.22,Unlimited,SBD,M,
Boys,124.74,2,Garrett Sellers,Seminole,117.48,165.56,99.79,165.56,430.91,Unlimited,SBD,M,
Boys,124.74,3,Reno Deleon,Seminole,116.57,156.49,90.72,161.03,408.23,Unlimited,SBD,M,
Boys,124.74,4,Samuel Herrera,Seminole,111.13,149.69,88.45,151.95,390.09,Unlimited,SBD,M,
Boys,124.74,5,Romeo Castillo,Plains,110.22,122.47,68.04,138.35,328.85,Unlimited,SBD,M,
Boys,124.74,6,Jorin Cimental,Ralls,116.21,136.08,61.23,124.74,322.05,Unlimited,SBD,M,
Boys,124.74,7,Ryder Valdedz,Plains,113.4,92.99,54.43,104.33,251.74,Unlimited,SBD,M,
Boys,139.71,2,Wesley Rose,Slaton,128.46,222.26,142.88,199.58,564.72,Unlimited,SBD,M,
Boys,139.71+,1,Nyk Alcala,Ralls,146.51,301.64,192.78,215.46,709.87,Unlimited,SBD,M,
Boys,,NS,Natahn Cisneros,Idalou,,92.99,,,,Unlimited,SBD,M,
Boys,,NS,Xaine Soliz,Ralls,,,,,,Unlimited,SBD,M,
Boys,,NS,Jake Johnson,Ralls,,,,,,Unlimited,SBD,M,
Boys,,NS,Jonah Escalante,Denver City,,,,,,Unlimited,SBD,M,
Boys,,NS,Toby Espinoza,Denver City,,,,,,Unlimited,SBD,M,
Boys,,NS,Trak Crow,Slaton,,,,,,Unlimited,SBD,M,
Boys,,NS,Juan Mendoza,Denver City,,,,,,Unlimited,SBD,M,
Boys,,NS,Jesus Mejia,Denver City,,,,,,Unlimited,SBD,M,
Boys,,NS,Andres Hernandez,Denver City,,,,,,Unlimited,SBD,M,
Boys,,NS,Ethan Hunsaker,Idalou,,,,,,Unlimited,SBD,M,
Boys,,NS,Ian Leyva,Denver City,,,,,,Unlimited,SBD,M,
