Division,WeightClassKg,Place,Name,Team,BodyweightKg,Best3SquatKg,Best3BenchKg,Best3DeadliftKg,TotalKg,Equipment,Event,Sex,BirthDate
Boys,51.71,1,Monte Kerr,Iowa Park,51.26,149.69,104.33,154.22,408.23,Unlimited,SBD,M,
Boys,51.71,2,Nathan DeLeon,Electra,51.62,142.88,81.65,138.35,362.87,Unlimited,SBD,M,
Boys,51.71,3,Kirby Lehman,Vernon,43.59,70.31,31.75,77.11,179.17,Unlimited,SBD,M,
Boys,55.79,1,Riggen Thaggard,Electra,55.66,154.22,83.91,167.83,405.97,Unlimited,SBD,M,
Boys,55.79,2,Malachi Perez,Wichita Falls Rider,54.16,140.61,88.45,149.69,378.75,Unlimited,SBD,M,
Boys,55.79,3,Brandon Beltran,Wichita Falls City View,55.7,120.2,70.31,136.08,326.59,Unlimited,SBD,M,
Boys,55.79,4,Stellar Maksin,Henrietta,55.7,111.13,81.65,124.74,317.51,Unlimited,SBD,M,
Boys,55.79,5,Ethyn Puga,Wichita Falls City View,55.43,88.45,74.84,106.59,269.89,Unlimited,SBD,M,
Boys,59.87,1,Jayden Martinez,Vernon,59.33,183.7,95.25,181.44,460.4,Unlimited,SBD,M,
Boys,59.87,2,Kaden Erskine,Burkburnett,57.97,167.83,88.45,165.56,421.84,Unlimited,SBD,M,
Boys,59.87,3,Jace Yarbrough,Iowa Park,58.97,151.95,95.25,165.56,412.77,Unlimited,SBD,M,
Boys,59.87,4,Aiden Ramirez,Wichita Falls City View,58.65,145.15,97.52,158.76,401.43,Unlimited,SBD,M,
Boys,59.87,5,Nick Mills,Henrietta,59.87,136.08,111.13,151.95,399.16,Unlimited,SBD,M,
Boys,59.87,6,Kolter Brumbalow,Henrietta,56.93,117.93,83.91,147.42,349.27,Unlimited,SBD,M,
Boys,59.87,7,Corbin Flinn,Wichita Falls,57.52,113.4,83.91,136.08,333.39,Unlimited,SBD,M,
Boys,59.87,8,Tayson Brown,Henrietta,58.15,111.13,74.84,106.59,292.57,Unlimited,SBD,M,
Boys,67.13,1,Tyler Thomas,Electra,66.5,167.83,102.06,188.24,458.13,Unlimited,SBD,M,
Boys,67.13,2,Gage Smith,Iowa Park,66.45,163.29,92.99,183.7,439.98,Unlimited,SBD,M,
Boys,67.13,3,Abraham Conner,Wichita Falls,66.68,151.95,92.99,172.37,417.3,Unlimited,SBD,M,
Boys,67.13,4,Nathaniel Donaghey,Electra,60.01,167.83,92.99,151.95,412.77,Unlimited,SBD,M,
Boys,67.13,5,Dawson Dabovich,Iowa Park,66.77,149.69,95.25,163.29,408.23,Unlimited,SBD,M,
Boys,67.13,6,Joaquin Martinez,Petrolia,67.13,131.54,104.33,145.15,381.02,Unlimited,SBD,M,
Boys,67.13,7,Donivan Montano,Vernon,66.63,149.69,68.04,131.54,349.27,Unlimited,SBD,M,
Boys,67.13,8,Bowie Eakin,Vernon,61.51,124.74,79.38,138.35,342.46,Unlimited,SBD,M,
Boys,67.13,9,Austin Snodderly,Burkburnett,63.59,122.47,65.77,151.95,340.19,Unlimited,SBD,M,
Boys,67.13,10,Salvador Lomeli,Wichita Falls,67.04,136.08,90.72,102.06,328.85,Unlimited,SBD,M,
Boys,67.13,11,Hser Moo,Vernon,60.92,104.33,70.31,147.42,322.05,Unlimited,SBD,M,
Boys,67.13,12,Kason Gee,Petrolia,66.68,113.4,,127.01,240.4,Unlimited,SD,M,
Boys,74.84,1,Tru Gipson,Vernon,68.58,183.7,113.4,188.24,485.34,Unlimited,SBD,M,
Boys,74.84,2,Micah Booth,Electra,74.75,176.9,120.2,183.7,480.81,Unlimited,SBD,M,
Boys,74.84,3,Stockton Dabovich,Iowa Park,72.12,181.44,113.4,170.1,464.93,Unlimited,SBD,M,
Boys,74.84,4,Jaiden Wetzel,Wichita Falls Rider,74.75,179.17,108.86,172.37,460.4,Unlimited,SBD,M,
Boys,74.84,5,Prestyn Brandon,Wichita Falls City View,69.4,170.1,99.79,172.37,442.25,Unlimited,SBD,M,
Boys,74.84,6,Elijah Williams,Wichita Falls Hirschi,68.67,136.08,95.25,192.78,424.11,Unlimited,SBD,M,
Boys,74.84,7,Jaheem Shaw,Wichita Falls Hirschi,67.31,165.56,92.99,129.27,387.82,Unlimited,SBD,M,
Boys,74.84,8,Keinin Gardner,Vernon,68.17,120.2,102.06,142.88,365.14,Unlimited,SBD,M,
Boys,74.84,9,Zero Nine,Vernon,67.72,131.54,81.65,145.15,358.34,Unlimited,SBD,M,
Boys,74.84,DQ,Michael Hernandez,Vernon,73.71,138.35,,151.95,,Unlimited,SBD,M,
Boys,82.1,1,Bradley Lovelace,Burkburnett,79.29,219.99,124.74,206.38,551.11,Unlimited,SBD,M,
Boys,82.1,2,Cole Cassaday,Henrietta,80.33,215.46,142.88,183.7,542.04,Unlimited,SBD,M,
Boys,82.1,3,Hunter Talley,Wichita Falls Rider,79.2,188.24,120.2,170.1,478.54,Unlimited,SBD,M,
Boys,82.1,4,Duncan Serrill,Wichita Falls Rider,78.24,174.63,113.4,181.44,469.47,Unlimited,SBD,M,
Boys,82.1,5,Jaydin Cantrell,Iowa Park,78.47,181.44,111.13,158.76,451.32,Unlimited,SBD,M,
Boys,82.1,6,Nicolas Chano,Wichita Falls City View,79.61,176.9,106.59,158.76,442.25,Unlimited,SBD,M,
Boys,82.1,7,Austin Lyons,Henrietta,81.01,174.63,102.06,147.42,424.11,Unlimited,SBD,M,
Boys,82.1,8,Christopher Vallance,Petrolia,82.01,115.67,106.59,149.69,371.95,Unlimited,SBD,M,
Boys,82.1,9,Blake Reese,Henrietta,77.02,129.27,79.38,151.95,360.61,Unlimited,SBD,M,
Boys,82.1,10,James Miller,Wichita Falls Rider,81.37,,106.59,172.37,278.96,Unlimited,BD,M,
Boys,89.81,1,Kanoa Kau,Burkburnett,88.36,208.65,133.81,210.92,553.38,Unlimited,SBD,M,
Boys,89.81,2,Charlie Thomas,Wichita Falls Rider,88.99,183.7,156.49,197.31,537.51,Unlimited,SBD,M,
Boys,89.81,3,Stephen Saylor,Iowa Park,87.72,195.04,97.52,197.31,489.88,Unlimited,SBD,M,
Boys,89.81,4,Elijah Crowley,Burkburnett,83.37,172.37,136.08,170.1,478.54,Unlimited,SBD,M,
Boys,89.81,5,Paxton Hollemans,Wichita Falls City View,89.54,154.22,122.47,158.76,435.45,Unlimited,SBD,M,
Boys,89.81,6,Rickie Williams,Wichita Falls Hirschi,85.09,165.56,95.25,167.83,428.64,Unlimited,SBD,M,
Boys,89.81,7,Ryder Wester,Wichita Falls,84.28,147.42,102.06,147.42,396.89,Unlimited,SBD,M,
Boys,89.81,8,Isai Vargas,Wichita Falls Rider,86.5,,102.06,188.24,290.3,Unlimited,BD,M,
Boys,89.81,DQ,Joshua Gaitan,Iowa Park,89.58,265.35,,,,Unlimited,SBD,M,
Boys,99.79,1,Aron McMahen,Electra,94.94,226.8,138.35,224.53,589.67,Unlimited,SBD,M,
Boys,99.79,2,Dorian Leija-Coleman,Wichita Falls Rider,99.29,206.38,129.27,192.78,528.44,Unlimited,SBD,M,
Boys,99.79,3,Dakota Strey,Burkburnett,93.53,174.63,108.86,192.78,476.27,Unlimited,SBD,M,
Boys,99.79,4,Makame Ball,Wichita Falls Hirschi,89.99,172.37,102.06,185.97,460.4,Unlimited,SBD,M,
Boys,99.79,5,Jeremy Merkel,Wichita Falls,89.86,158.76,111.13,154.22,424.11,Unlimited,SBD,M,
Boys,99.79,6,Mathew Adams,Petrolia,96.16,133.81,129.27,158.76,421.84,Unlimited,SBD,M,
Boys,99.79,7,Jacob Brown,Vernon,99.7,145.15,90.72,167.83,403.7,Unlimited,SBD,M,
Boys,109.77,1,Corbyn Oden,Iowa Park,106.59,274.42,208.65,201.85,684.92,Unlimited,SBD,M,
Boys,109.77,2,Geovanni Cedillo,Electra,109.23,249.48,158.76,258.55,666.78,Unlimited,SBD,M,
Boys,109.77,3,Jose Hinojosa,Wichita Falls,109.32,226.8,142.88,213.19,582.87,Unlimited,SBD,M,
Boys,109.77,4,Ariel Claudio,Wichita Falls,100.61,222.26,129.27,192.78,544.31,Unlimited,SBD,M,
Boys,109.77,5,Tomas DeLeon,Electra,108.77,215.46,129.27,181.44,526.17,Unlimited,SBD,M,
Boys,109.77,6,Rocky Sheffield,Electra,103.87,197.31,104.33,192.78,494.42,Unlimited,SBD,M,
Boys,109.77,7,Kylen Phillips,Burkburnett,106.5,174.63,111.13,190.51,476.27,Unlimited,SBD,M,
Boys,109.77,8,Keigan Ballard,Vernon,109.77,183.7,97.52,183.7,464.93,Unlimited,SBD,M,
Boys,109.77,9,Braedan Smith,Iowa Park,101.88,181.44,106.59,161.03,449.06,Unlimited,SBD,M,
Boys,109.77,10,Alexis Perez,Wichita Falls Hirschi,104.87,181.44,92.99,158.76,433.18,Unlimited,SBD,M,
Boys,109.77,11,Enrique Ramayo,Wichita Falls Hirschi,101.15,147.42,127.01,154.22,428.64,Unlimited,SBD,M,
Boys,124.74,1,Alfred Valdez,Wichita Falls Hirschi,120.84,283.5,136.08,258.55,678.12,Unlimited,SBD,M,
Boys,124.74,2,Ethan Holley,Petrolia,124.28,213.19,172.37,210.92,596.47,Unlimited,SBD,M,
Boys,124.74,3,Sonny Burke,Henrietta,120.02,235.87,156.49,192.78,585.13,Unlimited,SBD,M,
Boys,124.74,4,Daniel Syers,Burkburnett,117.39,226.8,111.13,204.12,542.04,Unlimited,SBD,M,
Boys,124.74,5,Sebastian Rodriguez,Wichita Falls Hirschi,116.03,190.51,147.42,176.9,514.83,Unlimited,SBD,M,
Boys,124.74,6,Joshua Oluwayomi,Wichita Falls City View,113.31,181.44,142.88,181.44,505.76,Unlimited,SBD,M,
Boys,124.74,7,Jesus Close,Wichita Falls,111.58,142.88,90.72,154.22,387.82,Unlimited,SBD,M,
Boys,124.74,8,Zach Milbern,Petrolia,124.28,106.59,45.36,147.42,299.37,Unlimited,SBD,M,
Boys,124.74,DQ,Christian Owen,Burkburnett,122.02,204.12,122.47,,,Unlimited,SBD,M,
Boys,139.71,1,Cason Green,Iowa Park,125.42,272.16,199.58,208.65,680.39,Unlimited,SBD,M,
Boys,139.71,2,Cape Johnson,Wichita Falls Rider,138.89,258.55,176.9,215.46,650.91,Unlimited,SBD,M,
Boys,139.71,3,Payton Cherry,Wichita Falls Hirschi,128.73,210.92,181.44,226.8,619.15,Unlimited,SBD,M,
Boys,139.71,4,Cayven Hull,Wichita Falls Hirschi,135.53,231.33,142.88,208.65,582.87,Unlimited,SBD,M,
Boys,139.71,5,Jared Gumpert,Petrolia,139.3,222.26,136.08,156.49,514.83,Unlimited,SBD,M,
Boys,139.71,6,Stanley Lapole,Wichita Falls City View,129.86,181.44,156.49,147.42,485.34,Unlimited,SBD,M,
Boys,139.71,7,Daveon Barry-Combs,Wichita Falls Hirschi,128.28,174.63,83.91,183.7,442.25,Unlimited,SBD,M,
Boys,139.71,DQ,Logan Brake,Wichita Falls Rider,126.14,231.33,158.76,,,Unlimited,SBD,M,
Boys,139.71+,1,Ethan Schlabs,Wichita Falls Rider,145.78,197.31,111.13,183.7,492.15,Unlimited,SBD,M,
Boys,139.71+,2,Kaleb McIntyre,Wichita Falls City View,161.3,158.76,136.08,183.7,478.54,Unlimited,SBD,M,
